<svg width="30" height="30" viewBox="0 0 30 30" fill="none" xmlns="http://www.w3.org/2000/svg">
<g clip-path="url(#clip0)">
<path fill-rule="evenodd" clip-rule="evenodd" d="M29.9996 0H10.714V8.57138H29.9996V0ZM8.57152 2.5699e-05H0.000139509V8.5714H8.57152V2.5699e-05ZM0 10.7142H8.57138V19.2856H0V10.7142ZM30 10.7142H10.7144V19.2855H30V10.7142ZM0 21.4288H8.57138V30.0002H0V21.4288ZM30 21.4282H10.7144V29.9996H30V21.4282Z" fill="#F8B925"/>
</g>
<defs>
<clipPath id="clip0">
<rect width="30" height="30.0002" rx="4" fill="white"/>
</clipPath>
</defs>
</svg>
